Enter white player name:
Enter black player name:






































  ABCDEFGH

8 ♜♞♝♛♚♝♞♜ 8
7 ♟♟♟♟♟♟♟♟ 7
6          6
5          5
4          4
3          3
2 ♟♟♟♟♟♟♟♟ 2
1 ♜♞♝♛♚♝♞♜ 1

  ABCDEFGH

Moshe: Please enter your move:






































  ABCDEFGH

8 ♜♞♝♛♚♝♞♜ 8
7 ♟♟♟♟♟♟♟♟ 7
6          6
5          5
4     ♟    4
3          3
2 ♟♟♟♟ ♟♟♟ 2
1 ♜♞♝♛♚♝♞♜ 1

  ABCDEFGH

John: Please enter your move:






































  ABCDEFGH

8 ♜ ♝♛♚♝♞♜ 8
7 ♟♟♟♟♟♟♟♟ 7
6   ♞      6
5          5
4     ♟    4
3          3
2 ♟♟♟♟ ♟♟♟ 2
1 ♜♞♝♛♚♝♞♜ 1

  ABCDEFGH

Moshe: Please enter your move:






































  ABCDEFGH

8 ♜ ♝♛♚♝♞♜ 8
7 ♟♟♟♟♟♟♟♟ 7
6   ♞      6
5        ♛ 5
4     ♟    4
3          3
2 ♟♟♟♟ ♟♟♟ 2
1 ♜♞♝ ♚♝♞♜ 1

  ABCDEFGH

John: Please enter your move:






































  ABCDEFGH

8 ♜ ♝♛♚♝♞♜ 8
7 ♟♟♟♟♟♟♟♟ 7
6          6
5        ♛ 5
4  ♞  ♟    4
3          3
2 ♟♟♟♟ ♟♟♟ 2
1 ♜♞♝ ♚♝♞♜ 1

  ABCDEFGH

Moshe: Please enter your move:






































  ABCDEFGH

8 ♜ ♝♛♚♝♞♜ 8
7 ♟♟♟♟♟♟♟♟ 7
6          6
5        ♛ 5
4  ♞♝ ♟    4
3          3
2 ♟♟♟♟ ♟♟♟ 2
1 ♜♞♝ ♚ ♞♜ 1

  ABCDEFGH

John: Please enter your move:






































  ABCDEFGH

8 ♜ ♝♛♚♝♞♜ 8
7 ♟♟♟♟♟♟♟♟ 7
6          6
5        ♛ 5
4   ♝ ♟    4
3          3
2 ♟♟♞♟ ♟♟♟ 2
1 ♜♞♝ ♚ ♞♜ 1

  ABCDEFGH

Check!
Moshe: Please enter your move:






































  ABCDEFGH

8 ♜ ♝♛♚♝♞♜ 8
7 ♟♟♟♟♟♟♟♟ 7
6          6
5        ♛ 5
4   ♝ ♟    4
3          3
2 ♟♟♞♟ ♟♟♟ 2
1 ♜♞♝♚  ♞♜ 1

  ABCDEFGH

John: Please enter your move:






































  ABCDEFGH

8 ♜ ♝♛♚♝♞♜ 8
7 ♟♟♟♟♟♟♟♟ 7
6          6
5        ♛ 5
4   ♝ ♟    4
3          3
2 ♟♟ ♟ ♟♟♟ 2
1 ♞♞♝♚  ♞♜ 1

  ABCDEFGH

Moshe: Please enter your move:
illegal move






































  ABCDEFGH

8 ♜ ♝♛♚♝♞♜ 8
7 ♟♟♟♟♟♟♟♟ 7
6          6
5        ♛ 5
4   ♝ ♟    4
3          3
2 ♟♟ ♟ ♟♟♟ 2
1 ♞♞♝♚  ♞♜ 1

  ABCDEFGH

Moshe: Please enter your move:






































  ABCDEFGH

8 ♜ ♝♛♚♝♞♜ 8
7 ♟♟♟♟♟♛♟♟ 7
6          6
5          5
4   ♝ ♟    4
3          3
2 ♟♟ ♟ ♟♟♟ 2
1 ♞♞♝♚  ♞♜ 1

  ABCDEFGH

Moshe won!
